lab1/quartus/Sistema_completo/simulation/qsim/sistema_completo.msim.vcd
$comment
	File created using the following command:
		vcd file sistema_completo.msim.vcd -direction
$end
$date
	Wed Mar 18 16:17:58 2020
$end
$version
	ModelSim Version 10.1d
$end
$timescale
	1ps
$end
$scope module sistema_completo_vlg_vec_tst $end
$var reg 1 ! BUTTONCL $end
$var reg 1 " BUTTONENA $end
$var reg 1 # CLK_OUT $end
$var wire 1 $ DECENAS [6] $end
$var wire 1 % DECENAS [5] $end
$var wire 1 & DECENAS [4] $end
$var wire 1 ' DECENAS [3] $end
$var wire 1 ( DECENAS [2] $end
$var wire 1 ) DECENAS [1] $end
$var wire 1 * DECENAS [0] $end
$var wire 1 + UNIDADES [6] $end
$var wire 1 , UNIDADES [5] $end
$var wire 1 - UNIDADES [4] $end
$var wire 1 . UNIDADES [3] $end
$var wire 1 / UNIDADES [2] $end
$var wire 1 0 UNIDADES [1] $end
$var wire 1 1 UNIDADES [0] $end
$var wire 1 2 sampler $end
$scope module i1 $end
$var wire 1 3 gnd $end
$var wire 1 4 vcc $end
$var wire 1 5 unknown $end
$var tri1 1 6 devclrn $end
$var tri1 1 7 devpor $end
$var tri1 1 8 devoe $end
$var wire 1 9 UNIDADES[0]~output_o $end
$var wire 1 : UNIDADES[1]~output_o $end
$var wire 1 ; UNIDADES[2]~output_o $end
$var wire 1 < UNIDADES[3]~output_o $end
$var wire 1 = UNIDADES[4]~output_o $end
$var wire 1 > UNIDADES[5]~output_o $end
$var wire 1 ? UNIDADES[6]~output_o $end
$var wire 1 @ DECENAS[0]~output_o $end
$var wire 1 A DECENAS[1]~output_o $end
$var wire 1 B DECENAS[2]~output_o $end
$var wire 1 C DECENAS[3]~output_o $end
$var wire 1 D DECENAS[4]~output_o $end
$var wire 1 E DECENAS[5]~output_o $end
$var wire 1 F DECENAS[6]~output_o $end
$var wire 1 G CLK_OUT~input_o $end
$var wire 1 H CLK_OUT~inputclkctrl_outclk $end
$var wire 1 I BUTTONCL~input_o $end
$var wire 1 J CONT1|mem~0_combout $end
$var wire 1 K BUTTONENA~input_o $end
$var wire 1 L CONT1|cuenta:mem[3]~0_combout $end
$var wire 1 M CONT1|cuenta:mem[0]~q $end
$var wire 1 N CONT1|mem~2_combout $end
$var wire 1 O CONT1|cuenta:mem[2]~q $end
$var wire 1 P CONT1|mem~3_combout $end
$var wire 1 Q CONT1|mem~4_combout $end
$var wire 1 R CONT1|cuenta:mem[3]~q $end
$var wire 1 S CONT1|cuenta:mem[3]~1_combout $end
$var wire 1 T CONT1|mem~1_combout $end
$var wire 1 U CONT1|cuenta:mem[1]~q $end
$var wire 1 V HEX1|Mux6~0_combout $end
$var wire 1 W HEX1|Mux5~0_combout $end
$var wire 1 X HEX1|Mux4~0_combout $end
$var wire 1 Y HEX1|Mux3~0_combout $end
$var wire 1 Z HEX1|Mux2~0_combout $end
$var wire 1 [ HEX1|Mux1~0_combout $end
$var wire 1 \ HEX1|Mux0~0_combout $end
$var wire 1 ] CONT2|mem~0_combout $end
$var wire 1 ^ CONT2|cuenta:mem[3]~0_combout $end
$var wire 1 _ CONT2|cuenta:mem[0]~q $end
$var wire 1 ` CONT2|mem~1_combout $end
$var wire 1 a CONT2|cuenta:mem[1]~q $end
$var wire 1 b CONT2|Add0~1_combout $end
$var wire 1 c CONT2|mem~3_combout $end
$var wire 1 d CONT2|cuenta:mem[3]~q $end
$var wire 1 e CONT2|cuenta:mem[3]~1_combout $end
$var wire 1 f CONT2|Add0~0_combout $end
$var wire 1 g CONT2|mem~2_combout $end
$var wire 1 h CONT2|cuenta:mem[2]~q $end
$var wire 1 i HEX2|Mux6~0_combout $end
$var wire 1 j HEX2|Mux5~0_combout $end
$var wire 1 k HEX2|Mux4~0_combout $end
$var wire 1 l HEX2|Mux3~0_combout $end
$var wire 1 m HEX2|Mux2~0_combout $end
$var wire 1 n HEX2|Mux1~0_combout $end
$var wire 1 o HEX2|Mux0~0_combout $end
$upscope $end
$upscope $end
$enddefinitions $end
#0
$dumpvars
0!
1"
0#
1*
0)
0(
0'
0&
0%
0$
11
00
0/
0.
0-
0,
0+
x2
03
14
x5
16
17
18
19
0:
0;
0<
0=
0>
0?
1@
0A
0B
0C
0D
0E
0F
0G
0H
0I
0J
1K
1L
0M
0N
0O
1P
0Q
0R
0S
0T
0U
0V
0W
0X
0Y
0Z
0[
0\
0]
1^
0_
0`
0a
0b
0c
0d
1e
0f
0g
0h
0i
0j
0k
0l
0m
0n
0o
$end
#5000
1#
1G
1H
02
#10000
0#
0G
0H
12
#15000
1#
1G
1H
02
#20000
1!
0#
1I
0G
0H
12
0^
1]
1J
#25000
1#
1G
1H
02
1M
1T
0P
0J
1\
1Y
1X
1W
1?
1<
1;
1:
1+
1.
1/
10
#30000
0#
0G
0H
12
#35000
1#
1G
1H
02
1U
0M
1V
1P
1J
0\
1Z
0Y
0X
09
0?
1=
0<
0;
01
0+
1-
0.
0/
#40000
0#
0G
0H
12
#45000
1#
1G
1H
02
1M
0T
1N
0J
0Z
1X
0=
1;
0-
1/
#50000
0#
0G
0H
12
#55000
1#
1G
1H
02
0U
1O
0M
1J
1\
1Y
0W
1?
1<
0:
1+
1.
00
#60000
0#
0G
0H
12
#65000
1#
1G
1H
02
1M
1T
0J
0\
1[
0Y
0?
1>
0<
0+
1,
0.
#70000
0#
0G
0H
12
#75000
1#
1G
1H
02
1U
0M
1J
0X
0;
0/
#80000
0#
0G
0H
12
#85000
1#
1G
1H
02
1M
0V
0T
0P
0N
0J
0[
1Y
1X
1Q
19
0>
1<
1;
11
0,
1.
1/
#90000
0#
0G
0H
12
#95000
1#
1G
1H
02
0U
1R
0O
0M
1V
1P
0Q
1J
0Y
0X
1Q
09
0<
0;
01
0.
0/
#100000
0#
0G
0H
12
#105000
1#
1G
1H
02
1M
1T
1S
0P
0J
1X
1^
0T
0Q
1;
1/
#110000
0#
0G
0H
12
#115000
1#
1G
1H
02
1_
0R
0M
1`
0]
0V
0S
1P
1J
1o
1l
1k
1j
0X
0^
19
1F
1C
1B
1A
0;
11
1$
1'
1(
1)
0/
#120000
0#
0G
0H
12
#125000
1#
1G
1H
02
1M
1T
0P
0J
1\
1Y
1X
1W
1?
1<
1;
1:
1+
1.
1/
10
#130000
0#
0G
0H
12
#135000
1#
1G
1H
02
1U
0M
1V
1P
1J
0\
1Z
0Y
0X
09
0?
1=
0<
0;
01
0+
1-
0.
0/
#140000
0#
0G
0H
12
#145000
1#
1G
1H
02
1M
0T
1N
0J
0Z
1X
0=
1;
0-
1/
#150000
0#
0G
0H
12
#155000
1#
1G
1H
02
0U
1O
0M
1J
1\
1Y
0W
1?
1<
0:
1+
1.
00
#160000
0"
0#
0K
0G
0H
12
0L
#165000
1#
1G
1H
02
#170000
0#
0G
0H
12
#175000
1#
1G
1H
02
#180000
0#
0G
0H
12
#185000
1#
1G
1H
02
#190000
0#
0G
0H
12
#195000
1#
1G
1H
02
#200000
0#
0G
0H
12
#205000
1#
1G
1H
02
#210000
0#
0G
0H
12
#215000
1#
1G
1H
02
#220000
1"
0#
1K
0G
0H
12
1L
#225000
1#
1G
1H
02
1M
1T
0J
0\
1[
0Y
0?
1>
0<
0+
1,
0.
#230000
0#
0G
0H
12
#235000
1#
1G
1H
02
1U
0M
1J
0X
0;
0/
#240000
0#
0G
0H
12
#245000
1#
1G
1H
02
1M
0V
0T
0P
0N
0J
0[
1Y
1X
1Q
19
0>
1<
1;
11
0,
1.
1/
#250000
0#
0G
0H
12
#255000
1#
1G
1H
02
0U
1R
0O
0M
1V
1P
0Q
1J
0Y
0X
1Q
09
0<
0;
01
0.
0/
#260000
0#
0G
0H
12
#265000
1#
1G
1H
02
1M
1T
1S
0P
0J
1X
1^
0T
0Q
1;
1/
#270000
0#
0G
0H
12
#275000
1#
1G
1H
02
1a
0_
0R
0M
1i
1]
0V
0S
1P
1J
0o
1m
0l
0k
0X
0^
0@
19
0F
1D
0C
0B
0;
0*
11
0$
1&
0'
0(
0/
#280000
0#
0G
0H
12
#285000
1#
1G
1H
02
1M
1T
0P
0J
1\
1Y
1X
1W
1?
1<
1;
1:
1+
1.
1/
10
#290000
0!
0#
0I
0G
0H
12
0`
1^
0]
0T
#295000
1#
1G
1H
02
0a
0M
0i
1P
0m
0j
0\
0Y
0X
0W
1@
0D
0A
0?
0<
0;
0:
1*
0&
0)
0+
0.
0/
00
#300000
0#
0G
0H
12
#305000
1#
1G
1H
02
#310000
0#
0G
0H
12
#315000
1#
1G
1H
02
#320000
0#
0G
0H
12
#325000
1#
1G
1H
02
#330000
1!
0#
1I
0G
0H
12
0^
1]
1J
#335000
1#
1G
1H
02
1M
1T
0P
0J
1\
1Y
1X
1W
1?
1<
1;
1:
1+
1.
1/
10
#340000
0#
0G
0H
12
#345000
1#
1G
1H
02
1U
0M
1V
1P
1J
0\
1Z
0Y
0X
09
0?
1=
0<
0;
01
0+
1-
0.
0/
#350000
0#
0G
0H
12
#355000
1#
1G
1H
02
1M
0T
1N
0J
0Z
1X
0=
1;
0-
1/
#360000
0#
0G
0H
12
#365000
1#
1G
1H
02
0U
1O
0M
1J
1\
1Y
0W
1?
1<
0:
1+
1.
00
#370000
0#
0G
0H
12
#375000
1#
1G
1H
02
1M
1T
0J
0\
1[
0Y
0?
1>
0<
0+
1,
0.
#380000
0#
0G
0H
12
#385000
1#
1G
1H
02
1U
0M
1J
0X
0;
0/
#390000
0#
0G
0H
12
#395000
1#
1G
1H
02
1M
0V
0T
0P
0N
0J
0[
1Y
1X
1Q
19
0>
1<
1;
11
0,
1.
1/
#400000
0#
0G
0H
12
#405000
1#
1G
1H
02
0U
1R
0O
0M
1V
1P
0Q
1J
0Y
0X
1Q
09
0<
0;
01
0.
0/
#410000
0#
0G
0H
12
#415000
1#
1G
1H
02
1M
1T
1S
0P
0J
1X
1^
0T
0Q
1;
1/
#420000
0#
0G
0H
12
#425000
1#
1G
1H
02
1_
0R
0M
1`
0]
0V
0S
1P
1J
1o
1l
1k
1j
0X
0^
19
1F
1C
1B
1A
0;
11
1$
1'
1(
1)
0/
#430000
0#
0G
0H
12
#435000
1#
1G
1H
02
1M
1T
0P
0J
1\
1Y
1X
1W
1?
1<
1;
1:
1+
1.
1/
10
#440000
0#
0G
0H
12
#445000
1#
1G
1H
02
1U
0M
1V
1P
1J
0\
1Z
0Y
0X
09
0?
1=
0<
0;
01
0+
1-
0.
0/
#450000
0#
0G
0H
12
#455000
1#
1G
1H
02
1M
0T
1N
0J
0Z
1X
0=
1;
0-
1/
#460000
0#
0G
0H
12
#465000
1#
1G
1H
02
0U
1O
0M
1J
1\
1Y
0W
1?
1<
0:
1+
1.
00
#470000
0#
0G
0H
12
#475000
1#
1G
1H
02
1M
1T
0J
0\
1[
0Y
0?
1>
0<
0+
1,
0.
#480000
0"
0!
0#
0K
0I
0G
0H
12
1^
0`
0T
0N
#485000
1#
1G
1H
02
0_
0O
0M
0V
0o
0l
0k
0j
0[
0X
19
0F
0C
0B
0A
0>
0;
11
0$
0'
0(
0)
0,
0/
#490000
0#
0G
0H
12
#495000
1#
1G
1H
02
#500000
0#
0G
0H
12
#505000
1#
1G
1H
02
#510000
0#
0G
0H
12
#515000
1#
1G
1H
02
#520000
0#
0G
0H
12
#525000
1#
1G
1H
02
#530000
0#
0G
0H
12
#535000
1#
1G
1H
02
#540000
0#
0G
0H
12
#545000
1#
1G
1H
02
#550000
1"
1!
0#
1K
1I
0G
0H
12
0^
1]
1J
#555000
1#
1G
1H
02
1M
1T
0P
0J
1\
1Y
1X
1W
1?
1<
1;
1:
1+
1.
1/
10
#560000
0#
0G
0H
12
#565000
1#
1G
1H
02
1U
0M
1V
1P
1J
0\
1Z
0Y
0X
09
0?
1=
0<
0;
01
0+
1-
0.
0/
#570000
0#
0G
0H
12
#575000
1#
1G
1H
02
1M
0T
1N
0J
0Z
1X
0=
1;
0-
1/
#580000
0#
0G
0H
12
#585000
1#
1G
1H
02
0U
1O
0M
1J
1\
1Y
0W
1?
1<
0:
1+
1.
00
#590000
0#
0G
0H
12
#595000
1#
1G
1H
02
1M
1T
0J
0\
1[
0Y
0?
1>
0<
0+
1,
0.
